/* XPM */
static char * fits_display_48_xpm[] = {
"48 48 111 2",
"  	c None",
". 	c #313131",
"+ 	c #333333",
"@ 	c #343434",
"# 	c #363636",
"$ 	c #353535",
"% 	c #383838",
"& 	c #373737",
"* 	c #393939",
"= 	c #3A3A3A",
"- 	c #323232",
"; 	c #3B3B3B",
"> 	c #3C3C3C",
", 	c #3D3D3D",
"' 	c #404040",
") 	c #3E3E3E",
"! 	c #414141",
"~ 	c #484848",
"{ 	c #3F3F3F",
"] 	c #454545",
"^ 	c #444444",
"/ 	c #4A4A4A",
"( 	c #434343",
"_ 	c #464646",
": 	c #4D4D4D",
"< 	c #474747",
"[ 	c #494949",
"} 	c #4E4E4E",
"| 	c #565656",
"1 	c #4C4C4C",
"2 	c #424242",
"3 	c #4F4F4F",
"4 	c #4B4B4B",
"5 	c #616161",
"6 	c #5E5E5E",
"7 	c #585858",
"8 	c #545454",
"9 	c #6A6A6A",
"0 	c #525252",
"a 	c #5A5A5A",
"b 	c #515151",
"c 	c #505050",
"d 	c #575757",
"e 	c #A7A7A7",
"f 	c #727272",
"g 	c #555555",
"h 	c #595959",
"i 	c #535353",
"j 	c #5C5C5C",
"k 	c #676767",
"l 	c #5B5B5B",
"m 	c #5D5D5D",
"n 	c #646464",
"o 	c #696969",
"p 	c #6D6D6D",
"q 	c #707070",
"r 	c #606060",
"s 	c #6C6C6C",
"t 	c #757575",
"u 	c #717171",
"v 	c #818181",
"w 	c #787878",
"x 	c #626262",
"y 	c #656565",
"z 	c #767676",
"A 	c #737373",
"B 	c #686868",
"C 	c #666666",
"D 	c #7D7D7D",
"E 	c #7F7F7F",
"F 	c #828282",
"G 	c #6B6B6B",
"H 	c #8A8A8A",
"I 	c #7C7C7C",
"J 	c #858585",
"K 	c #959595",
"L 	c #A1A1A1",
"M 	c #9F9F9F",
"N 	c #6F6F6F",
"O 	c #6E6E6E",
"P 	c #A9A9A9",
"Q 	c #5F5F5F",
"R 	c #7E7E7E",
"S 	c #868686",
"T 	c #C6C6C6",
"U 	c #F4F4F4",
"V 	c #E2E2E2",
"W 	c #898989",
"X 	c #797979",
"Y 	c #909090",
"Z 	c #A4A4A4",
"` 	c #EAEAEA",
" .	c #FDFDFD",
"..	c #F9F9F9",
"+.	c #B8B8B8",
"@.	c #8D8D8D",
"#.	c #919191",
"$.	c #D7D7D7",
"%.	c #F6F6F6",
"&.	c #E3E3E3",
"*.	c #A5A5A5",
"=.	c #8B8B8B",
"-.	c #ADADAD",
";.	c #B3B3B3",
">.	c #8C8C8C",
",.	c #636363",
"'.	c #888888",
").	c #848484",
"!.	c #838383",
"~.	c #7B7B7B",
"{.	c #747474",
". + @ @ # # $ # # % # & $ * # $ $ & $ & & & & % % & & & * & * = % * & # & $ = @ # @ @ - + + - . ",
". # $ $ & @ * % % = & % # % # & & * % % * & ; = > > = , ; = > = * ; ; ; % * > & * $ $ & @ + - - ",
"- @ % $ & % # * ; = % % * & = * * > ; ; % = > > ' > ) , ) ! ' ) ) , > = ; = & * & & * % # & # @ ",
"@ $ ~ = & % * > > > ; * % = * % > > = ; > = { ] { ! ' ! ' ) ^ / ^ ( ^ ' ) ) , = * = % # # $ # $ ",
"@ $ % & & * = = > * ; * = % * * ; > , ; , ' ] ( ] _ / : < [ } | _ ] 1 ! { ! ) , ; = * & % & @ $ ",
"$ $ & # % * ; ; > ; ; = ; * > = ; ; , ' 2 ] / / : 3 1 / 4 : 5 6 _ < ( ! 2 ! ! { , ) > = & # $ @ ",
"$ $ % = = ; , * ; > ; = ; ; , , ) ' ) / ~ [ / } : 4 : 1 4 ~ / / ~ < ] ( ! ! ) ' { ( , * * & $ @ ",
"# % = * = * ; = > > ; ; ; ) , ) ) { ( ^ / 4 : 7 1 / [ 4 / < : / < _ [ ^ ! { ) { ) > > > ; * & @ ",
"# & = = ; ; * ; { = ; , , , ) { { ' ] ~ : } 8 9 3 1 / [ 4 / 4 0 : _ ~ ( ! ! ' 2 { , ' , = & * & ",
"$ % * > , > ; ; > ) , > , ) ' ' ' ! ] _ 0 a | } : b c : 1 / ~ / d ~ ] ( 2 ! ] e f ! ) > ; * % # ",
"@ % ; > ; ; > > ; , { , ) ' ' ' ! < ~ : g h 0 c 0 i c i : 4 4 / ~ ] ] ] ( ( ] 5 c 2 ) ) * * # $ ",
"$ % = ; ; ; > > , > , > ' ^ ( ( ^ ^ 1 g j d g g 8 i 0 8 } } c } 4 _ _ < ] ] ] 2 2 ' ) > ; * & & ",
"& = = = , , > ) { { , ) ) ] [ 2 _ [ i k j h l | d 7 a d | | | i 4 ~ ] _ ^ 2 ( ! ! ) ' { * > % % ",
"$ * ; > > , ; { > { { , ' ! [ : ~ 1 d j 6 6 m h m n o p q o k 7 } [ [ ^ ] ^ ( ! ) ' ' ' , ; = = ",
"# % ) 2 , / _ , { { ^ ' ! ( ] ~ : c l 5 m m j r s t q p p u 9 o m | b [ ~ ] ( ! ) { , ; > ) > ; ",
"& * , ^ ' v w { ^ 2 { { ( ^ _ [ : 0 r x 6 6 y q z A t t f p B s B m 8 ~ [ < ^ ! ' { , , , ) = % ",
"% * ; ) ) ' , ' ^ 2 2 ] ^ ( ] [ } | y C m w w D w E F v D A G H x x | } ~ ~ ] ( ! ) { ) ) ) * ; ",
"# * [ I ' ' , , , 2 2 ( 2 ^ ^ ~ : l 6 5 5 f E v J K L e M v N B n O 5 g c 1 [ < ' ' { _ 2 P _ = ",
"$ ; = ) ! ^ ) > , ' < 2 ^ ] < ~ 0 7 j Q n B R S K T U V e W X 9 B y s j 0 : [ _ 2 ) > ) , ) , = ",
"& * > , { g ( { , ) ! _ ] _ ~ ~ c h y r C o v Y Z `  ...+.@.F f o l r l 8 } 4 < ] ) ) ) { > = * ",
"@ * ; > , ' , { , , { _ [ _ 1 / b j G k C C t #.M $.%.&.*.=.E f 9 l l g 0 c 4 < ( ( > ; ) ) % % ",
"$ % * > { , { , ) ) ' 2 ^ _ 1 0 3 g 5 l x n p v Y -.;.e =.J v o y y h | } : : < ^ ! > = > ) = * ",
"# % * 1 >.{ ) { 2 , { 2 ( ] ] } b b ,.,.5 y C p D '.'.).F !.~.y 6 l 5 | c : [ _ ! { > ; > , = % ",
"& % = _ J { ) { > ' ' ' ] ^ < 4 } c J H r f p 9 q z w w I E 9 r h i 7 0 } 4 [ ^ ^ ' > ; > = * % ",
"$ % % = > > ) ' ' ! ^ _ ( ( _ ~ [ 4 0 h m n o p q u u {.u s n h 8 0 d i c 1 [ _ 2 ' ) > * * * % ",
"# $ # = ; > { ) ) { ' ] ( ] _ < ~ 4 : | | j 5 C G N f s n ,.h g y m h | 0 } : ( ! ' , > = = = % ",
"$ & * * ; ; , , { { 2 2 2 ] / 1 ~ [ } } } | m Q C G n 6 6 l | 7 Q h g 3 3 4 } 2 2 ' > ; = * & % ",
"# & * & ; > , ) 2 ' 2 ' ] ' _ ] / / 1 c c c | i h 7 l j d d j x h i 0 c 4 c ( ' ' ) ! ^ = ; & % ",
"@ % % * ; ; , { ) { ! ) ( >._ [ / : 3 b b 0 | 8 i d Q k h | r a i c : : ~ _ 2 { { { , , > ; = = ",
"@ & # % * > = > { ' ' ! ! Q ^ 2 ( _ 1 g i 3 i 0 i 0 8 x d h n i 3 : / / ^ ( ( { ' 2 ! ) > = % % ",
"@ & & % * = * ; ) ) ' ! ' ( ! ] ^ _ [ g / / 4 : } 3 c 0 d ,.h : 4 [ _ _ 2 { { { { 2 ' ) > ; % , ",
"+ # # % & * = > * , ! { 2 ( ( ( ] ^ _ 4 [ [ < < / 4 / / 4 h l [ < ^ ] ] 2 2 2 ) 2 f { , > ; * % ",
"@ $ = # * * % > * ) 2 2 ( 2 ! ^ ^ ( _ _ < ~ ~ < [ ~ _ _ ~ 1 [ _ ] ^ ( ^ ^ { { ) ' 1 ) > > = % * ",
"$ # % % % = * = = ; > , ) ! ^ ^ 2 ! ! ! 2 5 u ^ _ ] ] ] [ < < ( ^ ^ ^ 2 ' ) ! , ! ^ { = = = * * ",
"+ $ % & % = ; * = ; * > , { ) ' , ' { 7 ( 2 ' ! ' ^ ( ( ^ ] _ ( ( ( 2 2 ' ) { { ! ) ) ; = = ; = ",
"@ $ & % * * * * = = = ; > ; ; > ; { { 2 ' { { ' ) 2 ] [ ( ( 2 ( ^ 2 ' ' ) > , ' ) > , = % = % % ",
"@ # % % & % ; ; = = ; * ; > ; = > , { ' ) ) > , 2 ! < 2 ! ! ' 2 ( [ ^ ! ) ; ; = ) > > = % & & & ",
"$ & # * % & ; = * = * > * = ; = > , ; , = > > > , ' ! ' { ' ' 2 ^ _ ! ) ) ; , > , > , % % % * & ",
"@ # # & % * = ; * * ; ; = ; ; ; ; > > ; ; > > , , ) { { ! ! ' ' _ { , > ' { , > ; ; = = = % & & ",
". # * % & = = > = % = = = = ; ; = ; , ) * > ) ; = > , ) ) ' ( ! { ) , > , ) , , = , * ; * % % # ",
"@ # = * = % = * = * = > * * ; ; = * ; , ; * , > ; ; ; > > 2 2 > { ) ) ) > ) > ; * * % = * * % % ",
"$ & * & % % * * % % = = * * * > > , > , > > ; = > * > , ) ' , , , , ) ) > ) , , = ; ; * * * # $ ",
"$ % % * r * % * = = = = ; * = = = = = ; > ) > , > > > > , , ' , = ) > > , , = = ; * = * % % $ $ ",
"& % * % * % * * * * * = = ; * ; % = = ; , ) ; > ; = ; ; , > , , , , > ; > = = > % = * = % ; & # ",
"$ & & = & % * % % * & * ; % * % = = * ; > = = = % , > * , ; ; = ; > > , ; ; > ; ; ; ; ; = * $ $ ",
"@ # & & & = = = ; % * = % * * % * ; * * * = ; % ; > ; = > > > > , , > ; ; = = = = * * = = = % $ ",
"# $ & & & & # % * % * = ; = = = = = % % > = * * * % * = , > ; = = = ; = * * = ; * % = & % & & % ",
"- . + - @ + . @ + + @ $ @ @ $ @ $ $ + $ # # $ @ $ # @ # # % # $ # # $ $ @ $ $ = 3 $ $ @ @ @ + @ "};
