Enabled        1
BAND           3
IA             -31.4
IE             +35.1
HASA            +0.00
HASA2           -3.26
HESE           +17.84
HECE           +41.83
HESA2           -1.04
HECA2           +1.41
NPAE           +28.64
CA             +42.88
AN             +10.43
AW              -8.01
