Enabled        1
BAND           0
IA             -46.22
IE            -807.20
HASA            +0.00
HASA2           -3.26
HESE            +0.00
HECE           -15.65
HESA2           -1.04
HECA2           +1.41
NPAE           +28.64
CA            -1059.62
AN             +10.43
AW              -8.01
