Enabled        1
BAND           0
IA            -195.00
IE            +447.00
HACA            -4.42
HASA            -1.20
HASA2           +0.73
HASA3           +0.38
HESE           -27.56
HECE           +30.09
HESA2            0.00
HESA3           +0.94
HECA2            0.00
HECA3           -0.34
NPAE           -15.01
CA            +187.00
AN             -31.00
AW             +14.00
